{
    "cartTitle": "Magic Mall",
    "cartDescription": "Dr Kelvins Mall",
    "cartLogo": "",
    "baseUrl": "http://localhost:1111",
    "emailHost": "smtp-mail.outlook.com",
    "emailPort": 587,
    "emailSecure": false,
    "emailUser": "hi@markmoffat.com",
    "emailPassword": "this_is_the_smtp_password",
    "emailAddress": "hi@markmoffat.com",
    "menuEnabled": true,
    "productsPerRow": 3,
    "productsPerPage": 6,
    "menuTitle": "Menu",
    "footerHtml": "&lt;h4 class=&quot;text-center&quot;&gt;Magic Mall&lt;/h4&gt;",
    "googleAnalytics": "",
    "injectJs": "",
    "customCss": "",
    "currencySymbol": "MMT",
    "paymentGateway": "metamask",
    "databaseConnectionString": "mongodb://127.0.0.1:27017/expresscart",
    "theme": "Cloth",
    "trackStock": false,
    "orderHook": "",
    "availableLanguages": [
        "en",
        "ch"
    ],
    "defaultLocale": "en",
    "maxQuantity": 25,
    "twitterHandle": "",
    "facebookAppId": "",
    "productOrderBy": "date",
    "productOrder": "descending",
    "modules": {
        "enabled": {
            "shipping": "shipping-basic",
            "discount": "discount-voucher"
        },
        "loaded": {
            "shipping": {},
            "discount": {}
        }
    },
    "showRelatedProducts": true,
    "secretCookie": "09ca9ed9f8de0251563c9290e86733455fff2068",
    "secretSession": "3c222cb557aa92b9af345b636b6ec13ebb6b764a",
    "themeViews": "../views/themes/Cloth/",
    "env": ".min"
}